%!PS-Adobe-3.0 EPSF-3.0
%%Creator: MATLAB, The MathWorks, Inc. Version 8.2.0.701 (R2013b). Operating System: Microsoft Windows 7.
%%Title: C:\Users\Chris\Desktop\thesis\M15N16UE150p4.eps
%%CreationDate: 04/23/2014  15:41:11
%%DocumentNeededFonts: Helvetica
%%DocumentProcessColors: Cyan Magenta Yellow Black
%%LanguageLevel: 2
%%Pages: 1
%%BoundingBox:   -50   169   646   672
%%EndComments

%%BeginProlog
% MathWorks dictionary
/MathWorks 160 dict begin
% definition operators
/bdef {bind def} bind def
/ldef {load def} bind def
/xdef {exch def} bdef
/xstore {exch store} bdef
% operator abbreviations
/c  /clip ldef
/cc /concat ldef
/cp /closepath ldef
/gr /grestore ldef
/gs /gsave ldef
/mt /moveto ldef
/np /newpath ldef
/cm /currentmatrix ldef
/sm /setmatrix ldef
/rm /rmoveto ldef
/rl /rlineto ldef
/s {show newpath} bdef
/sc {setcmykcolor} bdef
/sr /setrgbcolor ldef
/sg /setgray ldef
/w /setlinewidth ldef
/j /setlinejoin ldef
/cap /setlinecap ldef
/rc {rectclip} bdef
/rf {rectfill} bdef
% page state control
/pgsv () def
/bpage {/pgsv save def} bdef
/epage {pgsv restore} bdef
/bplot /gsave ldef
/eplot {stroke grestore} bdef
% orientation switch
/portraitMode 0 def /landscapeMode 1 def /rotateMode 2 def
% coordinate system mappings
/dpi2point 0 def
% font control
/FontSize 0 def
/FMS {/FontSize xstore findfont [FontSize 0 0 FontSize neg 0 0]
  makefont setfont} bdef
/ISOLatin1Encoding where {pop /WindowsLatin1Encoding 256 array bdef
ISOLatin1Encoding WindowsLatin1Encoding copy pop
/.notdef/.notdef/quotesinglbase/florin/quotedblbase/ellipsis/dagger
/daggerdbl/circumflex/perthousand/Scaron/guilsinglleft/OE/.notdef/.notdef
/.notdef/.notdef/quoteleft/quoteright/quotedblleft/quotedblright/bullet
/endash/emdash/tilde/trademark/scaron/guilsinglright/oe/.notdef/.notdef
/Ydieresis WindowsLatin1Encoding 128 32 getinterval astore pop}
{/WindowsLatin1Encoding StandardEncoding bdef} ifelse
/reencode {exch dup where {pop load} {pop StandardEncoding} ifelse
  exch dup 3 1 roll findfont dup length dict begin
  { 1 index /FID ne {def}{pop pop} ifelse } forall
  /Encoding exch def currentdict end definefont pop} bdef
/isroman {findfont /CharStrings get /Agrave known} bdef
/FMSR {3 1 roll 1 index dup isroman {reencode} {pop pop} ifelse
  exch FMS} bdef
/csm {1 dpi2point div -1 dpi2point div scale neg translate
 dup landscapeMode eq {pop -90 rotate}
  {rotateMode eq {90 rotate} if} ifelse} bdef
% line types: solid, dotted, dashed, dotdash
/SO { [] 0 setdash } bdef
/DO { [.5 dpi2point mul 4 dpi2point mul] 0 setdash } bdef
/DA { [6 dpi2point mul] 0 setdash } bdef
/DD { [.5 dpi2point mul 4 dpi2point mul 6 dpi2point mul 4
  dpi2point mul] 0 setdash } bdef
% macros for lines and objects
/L {lineto stroke} bdef
/MP {3 1 roll moveto 1 sub {rlineto} repeat} bdef
/AP {{rlineto} repeat} bdef
/PDlw -1 def
/W {/PDlw currentlinewidth def setlinewidth} def
/PP {closepath eofill} bdef
/DP {closepath stroke} bdef
/MR {4 -2 roll moveto dup  0 exch rlineto exch 0 rlineto
  neg 0 exch rlineto closepath} bdef
/FR {MR stroke} bdef
/PR {MR fill} bdef
/L1i {{currentfile picstr readhexstring pop} image} bdef
/tMatrix matrix def
/MakeOval {newpath tMatrix currentmatrix pop translate scale
0 0 1 0 360 arc tMatrix setmatrix} bdef
/FO {MakeOval stroke} bdef
/PO {MakeOval fill} bdef
/PD {currentlinewidth 2 div 0 360 arc fill
   PDlw -1 eq not {PDlw w /PDlw -1 def} if} def
/FA {newpath tMatrix currentmatrix pop translate scale
  0 0 1 5 -2 roll arc tMatrix setmatrix stroke} bdef
/PA {newpath tMatrix currentmatrix pop	translate 0 0 moveto scale
  0 0 1 5 -2 roll arc closepath tMatrix setmatrix fill} bdef
/FAn {newpath tMatrix currentmatrix pop translate scale
  0 0 1 5 -2 roll arcn tMatrix setmatrix stroke} bdef
/PAn {newpath tMatrix currentmatrix pop translate 0 0 moveto scale
  0 0 1 5 -2 roll arcn closepath tMatrix setmatrix fill} bdef
/vradius 0 def /hradius 0 def /lry 0 def
/lrx 0 def /uly 0 def /ulx 0 def /rad 0 def
/MRR {/vradius xdef /hradius xdef /lry xdef /lrx xdef /uly xdef
  /ulx xdef newpath tMatrix currentmatrix pop ulx hradius add uly
  vradius add translate hradius vradius scale 0 0 1 180 270 arc 
  tMatrix setmatrix lrx hradius sub uly vradius add translate
  hradius vradius scale 0 0 1 270 360 arc tMatrix setmatrix
  lrx hradius sub lry vradius sub translate hradius vradius scale
  0 0 1 0 90 arc tMatrix setmatrix ulx hradius add lry vradius sub
  translate hradius vradius scale 0 0 1 90 180 arc tMatrix setmatrix
  closepath} bdef
/FRR {MRR stroke } bdef
/PRR {MRR fill } bdef
/MlrRR {/lry xdef /lrx xdef /uly xdef /ulx xdef /rad lry uly sub 2 div def
  newpath tMatrix currentmatrix pop ulx rad add uly rad add translate
  rad rad scale 0 0 1 90 270 arc tMatrix setmatrix lrx rad sub lry rad
  sub translate rad rad scale 0 0 1 270 90 arc tMatrix setmatrix
  closepath} bdef
/FlrRR {MlrRR stroke } bdef
/PlrRR {MlrRR fill } bdef
/MtbRR {/lry xdef /lrx xdef /uly xdef /ulx xdef /rad lrx ulx sub 2 div def
  newpath tMatrix currentmatrix pop ulx rad add uly rad add translate
  rad rad scale 0 0 1 180 360 arc tMatrix setmatrix lrx rad sub lry rad
  sub translate rad rad scale 0 0 1 0 180 arc tMatrix setmatrix
  closepath} bdef
/FtbRR {MtbRR stroke } bdef
/PtbRR {MtbRR fill } bdef
/stri 6 array def /dtri 6 array def
/smat 6 array def /dmat 6 array def
/tmat1 6 array def /tmat2 6 array def /dif 3 array def
/asub {/ind2 exch def /ind1 exch def dup dup
  ind1 get exch ind2 get sub exch } bdef
/tri_to_matrix {
  2 0 asub 3 1 asub 4 0 asub 5 1 asub
  dup 0 get exch 1 get 7 -1 roll astore } bdef
/compute_transform {
  dmat dtri tri_to_matrix tmat1 invertmatrix 
  smat stri tri_to_matrix tmat2 concatmatrix } bdef
/ds {stri astore pop} bdef
/dt {dtri astore pop} bdef
/db {2 copy /cols xdef /rows xdef mul dup 3 mul string
  currentfile 
  3 index 0 eq {/ASCIIHexDecode filter}
  {/ASCII85Decode filter 3 index 2 eq {/RunLengthDecode filter} if }
  ifelse exch readstring pop
  dup 0 3 index getinterval /rbmap xdef
  dup 2 index dup getinterval /gbmap xdef
  1 index dup 2 mul exch getinterval /bbmap xdef pop pop}bdef
/it {gs np dtri aload pop moveto lineto lineto cp c
  cols rows 8 compute_transform 
  rbmap gbmap bbmap true 3 colorimage gr}bdef
/il {newpath moveto lineto stroke}bdef
currentdict end def
%%EndProlog

%%BeginSetup
MathWorks begin

0 cap

end
%%EndSetup

%%Page: 1 1
%%BeginPageSetup
%%PageBoundingBox:   -50   169   646   672
MathWorks begin
bpage
%%EndPageSetup

%%BeginObject: obj1
bplot

/dpi2point 12 def
portraitMode -0600 8064 csm

    0     0  8358  6033 rc
88 dict begin %Colortable dictionary
/c0 { 0.000000 0.000000 0.000000 sr} bdef
/c1 { 1.000000 1.000000 1.000000 sr} bdef
/c2 { 0.900000 0.000000 0.000000 sr} bdef
/c3 { 0.000000 0.820000 0.000000 sr} bdef
/c4 { 0.000000 0.000000 0.800000 sr} bdef
/c5 { 0.910000 0.820000 0.320000 sr} bdef
/c6 { 1.000000 0.260000 0.820000 sr} bdef
/c7 { 0.000000 0.820000 0.820000 sr} bdef
c0
1 j
1 sg
   0    0 8359 6034 rf
6 w
0 4917 6477 0 0 -4917 1087 5369 4 MP
PP
-6477 0 0 4917 6477 0 0 -4917 1087 5369 5 MP stroke
4 w
DO
SO
6 w
0 sg
1087  452 mt 7564  452 L
1087 5369 mt 7564 5369 L
7564 5369 mt 7564  452 L
1087 5369 mt 1087  452 L
1087 5369 mt 7564 5369 L
1087 5369 mt 1087  452 L
1087 5369 mt 1087 5304 L
1087  452 mt 1087  516 L
%%IncludeResource: font Helvetica
/Helvetica /WindowsLatin1Encoding 120 FMSR

1054 5514 mt 
(1) s
1806 5369 mt 1806 5304 L
1806  452 mt 1806  516 L
1773 5514 mt 
(2) s
2526 5369 mt 2526 5304 L
2526  452 mt 2526  516 L
2493 5514 mt 
(3) s
3246 5369 mt 3246 5304 L
3246  452 mt 3246  516 L
3213 5514 mt 
(4) s
3965 5369 mt 3965 5304 L
3965  452 mt 3965  516 L
3932 5514 mt 
(5) s
4685 5369 mt 4685 5304 L
4685  452 mt 4685  516 L
4652 5514 mt 
(6) s
5405 5369 mt 5405 5304 L
5405  452 mt 5405  516 L
5372 5514 mt 
(7) s
6124 5369 mt 6124 5304 L
6124  452 mt 6124  516 L
6091 5514 mt 
(8) s
6844 5369 mt 6844 5304 L
6844  452 mt 6844  516 L
6811 5514 mt 
(9) s
7564 5369 mt 7564 5304 L
7564  452 mt 7564  516 L
7498 5514 mt 
(10) s
1087 5369 mt 1151 5369 L
7564 5369 mt 7499 5369 L
 919 5413 mt 
(50) s
1087 4549 mt 1151 4549 L
7564 4549 mt 7499 4549 L
 919 4593 mt 
(60) s
1087 3730 mt 1151 3730 L
7564 3730 mt 7499 3730 L
 919 3774 mt 
(70) s
1087 2910 mt 1151 2910 L
7564 2910 mt 7499 2910 L
 919 2954 mt 
(80) s
1087 2091 mt 1151 2091 L
7564 2091 mt 7499 2091 L
 919 2135 mt 
(90) s
1087 1271 mt 1151 1271 L
7564 1271 mt 7499 1271 L
 852 1315 mt 
(100) s
1087  452 mt 1151  452 L
7564  452 mt 7499  452 L
 852  496 mt 
(110) s
1087  452 mt 7564  452 L
1087 5369 mt 7564 5369 L
7564 5369 mt 7564  452 L
1087 5369 mt 1087  452 L
gs 1087 452 6478 4918 rc
/c8 { 0.000000 0.000000 1.000000 sr} bdef
c8
720 -9 720 -11 719 -17 720 -33 720 -85 719 -179 720 -580 720 -1512 
719 -1803 1087 4967 10 MP stroke
gr

c8
0 j
-41 71 -41 -71 82 0 1046 4991 4 MP
DP
-41 71 -41 -71 82 0 1765 3188 4 MP
DP
-41 71 -41 -71 82 0 2485 1676 4 MP
DP
-41 71 -41 -71 82 0 3205 1096 4 MP
DP
-41 71 -41 -71 82 0 3924 917 4 MP
DP
-41 71 -41 -71 82 0 4644 832 4 MP
DP
-41 71 -41 -71 82 0 5364 799 4 MP
DP
-41 71 -41 -71 82 0 6083 782 4 MP
DP
-41 71 -41 -71 82 0 6803 771 4 MP
DP
-41 71 -41 -71 82 0 7523 762 4 MP
DP
gs 1087 452 6478 4918 rc
/c9 { 0.000000 1.000000 0.000000 sr} bdef
c9
720 -26 720 -32 719 -46 720 -61 720 -104 719 -216 720 -579 720 -1601 
719 -1519 1087 4967 10 MP stroke
gr

c9
-41 71 -41 -71 82 0 1046 4991 4 MP
DP
-41 71 -41 -71 82 0 1765 3472 4 MP
DP
-41 71 -41 -71 82 0 2485 1871 4 MP
DP
-41 71 -41 -71 82 0 3205 1292 4 MP
DP
-41 71 -41 -71 82 0 3924 1076 4 MP
DP
-41 71 -41 -71 82 0 4644 972 4 MP
DP
-41 71 -41 -71 82 0 5364 911 4 MP
DP
-41 71 -41 -71 82 0 6083 865 4 MP
DP
-41 71 -41 -71 82 0 6803 833 4 MP
DP
-41 71 -41 -71 82 0 7523 807 4 MP
DP
gs 1087 452 6478 4918 rc
/c10 { 1.000000 0.000000 0.000000 sr} bdef
c10
720 -3 720 -5 719 -14 720 -37 720 -75 719 -198 720 -594 720 -1537 
719 -1745 1087 4967 10 MP stroke
gr

c10
-41 71 -41 -71 82 0 1046 4991 4 MP
DP
-41 71 -41 -71 82 0 1765 3246 4 MP
DP
-41 71 -41 -71 82 0 2485 1709 4 MP
DP
-41 71 -41 -71 82 0 3205 1115 4 MP
DP
-41 71 -41 -71 82 0 3924 917 4 MP
DP
-41 71 -41 -71 82 0 4644 842 4 MP
DP
-41 71 -41 -71 82 0 5364 805 4 MP
DP
-41 71 -41 -71 82 0 6083 791 4 MP
DP
-41 71 -41 -71 82 0 6803 786 4 MP
DP
-41 71 -41 -71 82 0 7523 783 4 MP
DP
gs 1087 452 6478 4918 rc
/c11 { 0.000000 1.000000 1.000000 sr} bdef
c11
720 -15 720 -18 719 -24 720 -38 720 -74 719 -169 720 -586 720 -1429 
719 -1857 1087 4967 10 MP stroke
gr

c11
-41 71 -41 -71 82 0 1046 4991 4 MP
DP
-41 71 -41 -71 82 0 1765 3134 4 MP
DP
-41 71 -41 -71 82 0 2485 1705 4 MP
DP
-41 71 -41 -71 82 0 3205 1119 4 MP
DP
-41 71 -41 -71 82 0 3924 950 4 MP
DP
-41 71 -41 -71 82 0 4644 876 4 MP
DP
-41 71 -41 -71 82 0 5364 838 4 MP
DP
-41 71 -41 -71 82 0 6083 814 4 MP
DP
-41 71 -41 -71 82 0 6803 796 4 MP
DP
-41 71 -41 -71 82 0 7523 781 4 MP
DP
gs 1087 452 6478 4918 rc
/c12 { 1.000000 0.000000 1.000000 sr} bdef
c12
720 -9 720 -17 719 -24 720 -42 720 -89 719 -203 720 -573 720 -1545 
719 -1692 1087 4967 10 MP stroke
gr

c12
-41 71 -41 -71 82 0 1046 4991 4 MP
DP
-41 71 -41 -71 82 0 1765 3299 4 MP
DP
-41 71 -41 -71 82 0 2485 1754 4 MP
DP
-41 71 -41 -71 82 0 3205 1181 4 MP
DP
-41 71 -41 -71 82 0 3924 978 4 MP
DP
-41 71 -41 -71 82 0 4644 889 4 MP
DP
-41 71 -41 -71 82 0 5364 847 4 MP
DP
-41 71 -41 -71 82 0 6083 823 4 MP
DP
-41 71 -41 -71 82 0 6803 806 4 MP
DP
-41 71 -41 -71 82 0 7523 797 4 MP
DP
gs 1087 452 6478 4918 rc
DO
0 sg
720 0 720 0 719 0 720 0 720 0 719 0 720 0 720 0 
719 0 1087 708 10 MP stroke
gr

0 sg
DO
3887 5657 mt 
(discovery period) s
 770 3754 mt  -90 rotate
(Average discovered UE number) s
90 rotate
2767  357 mt 
(Type 2B, M = 15, N = 16, UE = 150, Monte Carlo tries = 10) s
1070 5412 mt 
( ) s
7548  494 mt 
( ) s
SO
1 sg
0 996 2438 0 0 -996 5059 5291 4 MP
PP
-2438 0 0 996 2438 0 0 -996 5059 5291 5 MP stroke
4 w
DO
SO
6 w
0 sg
5059 4295 mt 7497 4295 L
5059 5291 mt 7497 5291 L
7497 5291 mt 7497 4295 L
5059 5291 mt 5059 4295 L
5059 5291 mt 7497 5291 L
5059 5291 mt 5059 4295 L
5059 4295 mt 7497 4295 L
5059 5291 mt 7497 5291 L
7497 5291 mt 7497 4295 L
5059 5291 mt 5059 4295 L
5534 4438 mt 
(15 x 16 Modified Proposed Method) s
gs 5059 4295 2439 997 rc
c8
365 0 5132 4395 2 MP stroke
gs 5241 4322 147 147 rc
-41 71 -41 -71 82 0 5273 4419 4 MP
DP
gr

gr

c8
0 sg
5534 4597 mt 
(15 x 16 Proposed Method) s
gs 5059 4295 2439 997 rc
c9
365 0 5132 4554 2 MP stroke
gs 5241 4481 147 147 rc
-41 71 -41 -71 82 0 5273 4578 4 MP
DP
gr

gr

c9
0 sg
5534 4756 mt 
(15 x 16 QualComm Hopping Pattern) s
gs 5059 4295 2439 997 rc
c10
365 0 5132 4713 2 MP stroke
gs 5241 4640 147 147 rc
-41 71 -41 -71 82 0 5273 4737 4 MP
DP
gr

gr

c10
0 sg
5534 4915 mt 
(15 x 16 Intel Hopping Pattern) s
gs 5059 4295 2439 997 rc
c11
365 0 5132 4872 2 MP stroke
gs 5241 4799 147 147 rc
-41 71 -41 -71 82 0 5273 4896 4 MP
DP
gr

gr

c11
0 sg
5534 5074 mt 
(15 x 16 Docomo Hopping Pattern) s
gs 5059 4295 2439 997 rc
c12
365 0 5132 5031 2 MP stroke
gs 5241 4958 147 147 rc
-41 71 -41 -71 82 0 5273 5055 4 MP
DP
gr

gr

c12
0 sg
5534 5233 mt 
(Maximum searchable UE numbers) s
gs 5059 4295 2439 997 rc
DO
365 0 5132 5190 2 MP stroke
SO
gr


end %%Color Dict

eplot
%%EndObject

epage
end

showpage

%%Trailer
%%EOF
