%!PS-Adobe-3.0 EPSF-3.0
%%Creator: MATLAB, The MathWorks, Inc. Version 8.2.0.701 (R2013b). Operating System: Microsoft Windows 7.
%%Title: C:\Users\Chris\Desktop\thesis\M44N16UE450.eps
%%CreationDate: 04/24/2014  00:40:02
%%DocumentNeededFonts: Helvetica
%%DocumentProcessColors: Cyan Magenta Yellow Black
%%LanguageLevel: 2
%%Pages: 1
%%BoundingBox:    27   215   566   625
%%EndComments

%%BeginProlog
% MathWorks dictionary
/MathWorks 160 dict begin
% definition operators
/bdef {bind def} bind def
/ldef {load def} bind def
/xdef {exch def} bdef
/xstore {exch store} bdef
% operator abbreviations
/c  /clip ldef
/cc /concat ldef
/cp /closepath ldef
/gr /grestore ldef
/gs /gsave ldef
/mt /moveto ldef
/np /newpath ldef
/cm /currentmatrix ldef
/sm /setmatrix ldef
/rm /rmoveto ldef
/rl /rlineto ldef
/s {show newpath} bdef
/sc {setcmykcolor} bdef
/sr /setrgbcolor ldef
/sg /setgray ldef
/w /setlinewidth ldef
/j /setlinejoin ldef
/cap /setlinecap ldef
/rc {rectclip} bdef
/rf {rectfill} bdef
% page state control
/pgsv () def
/bpage {/pgsv save def} bdef
/epage {pgsv restore} bdef
/bplot /gsave ldef
/eplot {stroke grestore} bdef
% orientation switch
/portraitMode 0 def /landscapeMode 1 def /rotateMode 2 def
% coordinate system mappings
/dpi2point 0 def
% font control
/FontSize 0 def
/FMS {/FontSize xstore findfont [FontSize 0 0 FontSize neg 0 0]
  makefont setfont} bdef
/ISOLatin1Encoding where {pop /WindowsLatin1Encoding 256 array bdef
ISOLatin1Encoding WindowsLatin1Encoding copy pop
/.notdef/.notdef/quotesinglbase/florin/quotedblbase/ellipsis/dagger
/daggerdbl/circumflex/perthousand/Scaron/guilsinglleft/OE/.notdef/.notdef
/.notdef/.notdef/quoteleft/quoteright/quotedblleft/quotedblright/bullet
/endash/emdash/tilde/trademark/scaron/guilsinglright/oe/.notdef/.notdef
/Ydieresis WindowsLatin1Encoding 128 32 getinterval astore pop}
{/WindowsLatin1Encoding StandardEncoding bdef} ifelse
/reencode {exch dup where {pop load} {pop StandardEncoding} ifelse
  exch dup 3 1 roll findfont dup length dict begin
  { 1 index /FID ne {def}{pop pop} ifelse } forall
  /Encoding exch def currentdict end definefont pop} bdef
/isroman {findfont /CharStrings get /Agrave known} bdef
/FMSR {3 1 roll 1 index dup isroman {reencode} {pop pop} ifelse
  exch FMS} bdef
/csm {1 dpi2point div -1 dpi2point div scale neg translate
 dup landscapeMode eq {pop -90 rotate}
  {rotateMode eq {90 rotate} if} ifelse} bdef
% line types: solid, dotted, dashed, dotdash
/SO { [] 0 setdash } bdef
/DO { [.5 dpi2point mul 4 dpi2point mul] 0 setdash } bdef
/DA { [6 dpi2point mul] 0 setdash } bdef
/DD { [.5 dpi2point mul 4 dpi2point mul 6 dpi2point mul 4
  dpi2point mul] 0 setdash } bdef
% macros for lines and objects
/L {lineto stroke} bdef
/MP {3 1 roll moveto 1 sub {rlineto} repeat} bdef
/AP {{rlineto} repeat} bdef
/PDlw -1 def
/W {/PDlw currentlinewidth def setlinewidth} def
/PP {closepath eofill} bdef
/DP {closepath stroke} bdef
/MR {4 -2 roll moveto dup  0 exch rlineto exch 0 rlineto
  neg 0 exch rlineto closepath} bdef
/FR {MR stroke} bdef
/PR {MR fill} bdef
/L1i {{currentfile picstr readhexstring pop} image} bdef
/tMatrix matrix def
/MakeOval {newpath tMatrix currentmatrix pop translate scale
0 0 1 0 360 arc tMatrix setmatrix} bdef
/FO {MakeOval stroke} bdef
/PO {MakeOval fill} bdef
/PD {currentlinewidth 2 div 0 360 arc fill
   PDlw -1 eq not {PDlw w /PDlw -1 def} if} def
/FA {newpath tMatrix currentmatrix pop translate scale
  0 0 1 5 -2 roll arc tMatrix setmatrix stroke} bdef
/PA {newpath tMatrix currentmatrix pop	translate 0 0 moveto scale
  0 0 1 5 -2 roll arc closepath tMatrix setmatrix fill} bdef
/FAn {newpath tMatrix currentmatrix pop translate scale
  0 0 1 5 -2 roll arcn tMatrix setmatrix stroke} bdef
/PAn {newpath tMatrix currentmatrix pop translate 0 0 moveto scale
  0 0 1 5 -2 roll arcn closepath tMatrix setmatrix fill} bdef
/vradius 0 def /hradius 0 def /lry 0 def
/lrx 0 def /uly 0 def /ulx 0 def /rad 0 def
/MRR {/vradius xdef /hradius xdef /lry xdef /lrx xdef /uly xdef
  /ulx xdef newpath tMatrix currentmatrix pop ulx hradius add uly
  vradius add translate hradius vradius scale 0 0 1 180 270 arc 
  tMatrix setmatrix lrx hradius sub uly vradius add translate
  hradius vradius scale 0 0 1 270 360 arc tMatrix setmatrix
  lrx hradius sub lry vradius sub translate hradius vradius scale
  0 0 1 0 90 arc tMatrix setmatrix ulx hradius add lry vradius sub
  translate hradius vradius scale 0 0 1 90 180 arc tMatrix setmatrix
  closepath} bdef
/FRR {MRR stroke } bdef
/PRR {MRR fill } bdef
/MlrRR {/lry xdef /lrx xdef /uly xdef /ulx xdef /rad lry uly sub 2 div def
  newpath tMatrix currentmatrix pop ulx rad add uly rad add translate
  rad rad scale 0 0 1 90 270 arc tMatrix setmatrix lrx rad sub lry rad
  sub translate rad rad scale 0 0 1 270 90 arc tMatrix setmatrix
  closepath} bdef
/FlrRR {MlrRR stroke } bdef
/PlrRR {MlrRR fill } bdef
/MtbRR {/lry xdef /lrx xdef /uly xdef /ulx xdef /rad lrx ulx sub 2 div def
  newpath tMatrix currentmatrix pop ulx rad add uly rad add translate
  rad rad scale 0 0 1 180 360 arc tMatrix setmatrix lrx rad sub lry rad
  sub translate rad rad scale 0 0 1 0 180 arc tMatrix setmatrix
  closepath} bdef
/FtbRR {MtbRR stroke } bdef
/PtbRR {MtbRR fill } bdef
/stri 6 array def /dtri 6 array def
/smat 6 array def /dmat 6 array def
/tmat1 6 array def /tmat2 6 array def /dif 3 array def
/asub {/ind2 exch def /ind1 exch def dup dup
  ind1 get exch ind2 get sub exch } bdef
/tri_to_matrix {
  2 0 asub 3 1 asub 4 0 asub 5 1 asub
  dup 0 get exch 1 get 7 -1 roll astore } bdef
/compute_transform {
  dmat dtri tri_to_matrix tmat1 invertmatrix 
  smat stri tri_to_matrix tmat2 concatmatrix } bdef
/ds {stri astore pop} bdef
/dt {dtri astore pop} bdef
/db {2 copy /cols xdef /rows xdef mul dup 3 mul string
  currentfile 
  3 index 0 eq {/ASCIIHexDecode filter}
  {/ASCII85Decode filter 3 index 2 eq {/RunLengthDecode filter} if }
  ifelse exch readstring pop
  dup 0 3 index getinterval /rbmap xdef
  dup 2 index dup getinterval /gbmap xdef
  1 index dup 2 mul exch getinterval /bbmap xdef pop pop}bdef
/it {gs np dtri aload pop moveto lineto lineto cp c
  cols rows 8 compute_transform 
  rbmap gbmap bbmap true 3 colorimage gr}bdef
/il {newpath moveto lineto stroke}bdef
currentdict end def
%%EndProlog

%%BeginSetup
MathWorks begin

0 cap

end
%%EndSetup

%%Page: 1 1
%%BeginPageSetup
%%PageBoundingBox:    27   215   566   625
MathWorks begin
bpage
%%EndPageSetup

%%BeginObject: obj1
bplot

/dpi2point 12 def
portraitMode 0324 7500 csm

    0     0  6477  4916 rc
88 dict begin %Colortable dictionary
/c0 { 0.000000 0.000000 0.000000 sr} bdef
/c1 { 1.000000 1.000000 1.000000 sr} bdef
/c2 { 0.900000 0.000000 0.000000 sr} bdef
/c3 { 0.000000 0.820000 0.000000 sr} bdef
/c4 { 0.000000 0.000000 0.800000 sr} bdef
/c5 { 0.910000 0.820000 0.320000 sr} bdef
/c6 { 1.000000 0.260000 0.820000 sr} bdef
/c7 { 0.000000 0.820000 0.820000 sr} bdef
c0
1 j
1 sg
   0    0 6478 4917 rf
6 w
0 4006 5019 0 0 -4006 842 4375 4 MP
PP
-5019 0 0 4006 5019 0 0 -4006 842 4375 5 MP stroke
4 w
DO
SO
6 w
0 sg
 842  369 mt 5861  369 L
 842 4375 mt 5861 4375 L
5861 4375 mt 5861  369 L
 842 4375 mt  842  369 L
 842 4375 mt 5861 4375 L
 842 4375 mt  842  369 L
 842 4375 mt  842 4324 L
 842  369 mt  842  419 L
%%IncludeResource: font Helvetica
/Helvetica /WindowsLatin1Encoding 120 FMSR

 809 4520 mt 
(1) s
1399 4375 mt 1399 4324 L
1399  369 mt 1399  419 L
1366 4520 mt 
(2) s
1957 4375 mt 1957 4324 L
1957  369 mt 1957  419 L
1924 4520 mt 
(3) s
2515 4375 mt 2515 4324 L
2515  369 mt 2515  419 L
2482 4520 mt 
(4) s
3073 4375 mt 3073 4324 L
3073  369 mt 3073  419 L
3040 4520 mt 
(5) s
3630 4375 mt 3630 4324 L
3630  369 mt 3630  419 L
3597 4520 mt 
(6) s
4188 4375 mt 4188 4324 L
4188  369 mt 4188  419 L
4155 4520 mt 
(7) s
4746 4375 mt 4746 4324 L
4746  369 mt 4746  419 L
4713 4520 mt 
(8) s
5304 4375 mt 5304 4324 L
5304  369 mt 5304  419 L
5271 4520 mt 
(9) s
5862 4375 mt 5862 4324 L
5862  369 mt 5862  419 L
5796 4520 mt 
(10) s
 842 4375 mt  892 4375 L
5862 4375 mt 5811 4375 L
 607 4419 mt 
(100) s
 842 3707 mt  892 3707 L
5862 3707 mt 5811 3707 L
 607 3751 mt 
(150) s
 842 3039 mt  892 3039 L
5862 3039 mt 5811 3039 L
 607 3083 mt 
(200) s
 842 2372 mt  892 2372 L
5862 2372 mt 5811 2372 L
 607 2416 mt 
(250) s
 842 1704 mt  892 1704 L
5862 1704 mt 5811 1704 L
 607 1748 mt 
(300) s
 842 1036 mt  892 1036 L
5862 1036 mt 5811 1036 L
 607 1080 mt 
(350) s
 842  369 mt  892  369 L
5862  369 mt 5811  369 L
 607  413 mt 
(400) s
 842  369 mt 5861  369 L
 842 4375 mt 5861 4375 L
5861 4375 mt 5861  369 L
 842 4375 mt  842  369 L
gs 842 369 5021 4007 rc
/c8 { 0.000000 0.000000 1.000000 sr} bdef
c8
557 -68 558 -86 558 -126 558 -166 557 -222 558 -305 558 -434 558 -507 
557 -804 842 4018 10 MP stroke
gr

c8
0 j
-41 71 -41 -71 82 0 801 4042 4 MP
DP
-41 71 -41 -71 82 0 1358 3238 4 MP
DP
-41 71 -41 -71 82 0 1916 2731 4 MP
DP
-41 71 -41 -71 82 0 2474 2297 4 MP
DP
-41 71 -41 -71 82 0 3032 1992 4 MP
DP
-41 71 -41 -71 82 0 3589 1770 4 MP
DP
-41 71 -41 -71 82 0 4147 1604 4 MP
DP
-41 71 -41 -71 82 0 4705 1478 4 MP
DP
-41 71 -41 -71 82 0 5263 1392 4 MP
DP
-41 71 -41 -71 82 0 5820 1324 4 MP
DP
gs 842 369 5021 4007 rc
/c9 { 0.000000 1.000000 0.000000 sr} bdef
c9
557 -77 558 -82 558 -99 558 -115 557 -141 558 -173 558 -236 558 -294 
557 -805 842 4018 10 MP stroke
gr

c9
-41 71 -41 -71 82 0 801 4042 4 MP
DP
-41 71 -41 -71 82 0 1358 3237 4 MP
DP
-41 71 -41 -71 82 0 1916 2943 4 MP
DP
-41 71 -41 -71 82 0 2474 2707 4 MP
DP
-41 71 -41 -71 82 0 3032 2534 4 MP
DP
-41 71 -41 -71 82 0 3589 2393 4 MP
DP
-41 71 -41 -71 82 0 4147 2278 4 MP
DP
-41 71 -41 -71 82 0 4705 2179 4 MP
DP
-41 71 -41 -71 82 0 5263 2097 4 MP
DP
-41 71 -41 -71 82 0 5820 2020 4 MP
DP
gs 842 369 5021 4007 rc
/c10 { 1.000000 0.000000 0.000000 sr} bdef
c10
557 -94 558 -109 558 -132 558 -159 557 -206 558 -264 558 -388 558 -418 
557 -809 842 4018 10 MP stroke
gr

c10
-41 71 -41 -71 82 0 801 4042 4 MP
DP
-41 71 -41 -71 82 0 1358 3233 4 MP
DP
-41 71 -41 -71 82 0 1916 2815 4 MP
DP
-41 71 -41 -71 82 0 2474 2427 4 MP
DP
-41 71 -41 -71 82 0 3032 2163 4 MP
DP
-41 71 -41 -71 82 0 3589 1957 4 MP
DP
-41 71 -41 -71 82 0 4147 1798 4 MP
DP
-41 71 -41 -71 82 0 4705 1666 4 MP
DP
-41 71 -41 -71 82 0 5263 1557 4 MP
DP
-41 71 -41 -71 82 0 5820 1463 4 MP
DP
gs 842 369 5021 4007 rc
/c11 { 0.000000 1.000000 1.000000 sr} bdef
c11
557 -1 558 -1 558 -4 558 -18 557 -31 558 -151 558 -217 558 -513 
557 -804 842 4018 10 MP stroke
gr

c11
-41 71 -41 -71 82 0 801 4042 4 MP
DP
-41 71 -41 -71 82 0 1358 3238 4 MP
DP
-41 71 -41 -71 82 0 1916 2725 4 MP
DP
-41 71 -41 -71 82 0 2474 2508 4 MP
DP
-41 71 -41 -71 82 0 3032 2357 4 MP
DP
-41 71 -41 -71 82 0 3589 2326 4 MP
DP
-41 71 -41 -71 82 0 4147 2308 4 MP
DP
-41 71 -41 -71 82 0 4705 2304 4 MP
DP
-41 71 -41 -71 82 0 5263 2303 4 MP
DP
-41 71 -41 -71 82 0 5820 2302 4 MP
DP
gs 842 369 5021 4007 rc
/c12 { 1.000000 0.000000 1.000000 sr} bdef
c12
557 -64 558 -80 558 -103 558 -139 557 -193 558 -274 558 -397 558 -477 
557 -803 842 4018 10 MP stroke
gr

c12
-41 71 -41 -71 82 0 801 4042 4 MP
DP
-41 71 -41 -71 82 0 1358 3239 4 MP
DP
-41 71 -41 -71 82 0 1916 2762 4 MP
DP
-41 71 -41 -71 82 0 2474 2365 4 MP
DP
-41 71 -41 -71 82 0 3032 2091 4 MP
DP
-41 71 -41 -71 82 0 3589 1898 4 MP
DP
-41 71 -41 -71 82 0 4147 1759 4 MP
DP
-41 71 -41 -71 82 0 4705 1656 4 MP
DP
-41 71 -41 -71 82 0 5263 1576 4 MP
DP
-41 71 -41 -71 82 0 5820 1512 4 MP
DP
gs 842 369 5021 4007 rc
DO
0 sg
557 0 558 0 558 0 558 0 557 0 558 0 558 0 558 0 
557 0 842 956 10 MP stroke
gr

0 sg
DO
2914 4663 mt 
(discovery period) s
 525 3216 mt  -90 rotate
(Average discovered UE number) s
90 rotate
1793  274 mt 
(Type 2B, M = 44, N = 16, UE = 450, Monte Carlo tries = 10) s
 825 4418 mt 
( ) s
5846  411 mt 
( ) s
SO
1 sg
0 996 2438 0 0 -996 3360 4261 4 MP
PP
-2438 0 0 996 2438 0 0 -996 3360 4261 5 MP stroke
4 w
DO
SO
6 w
0 sg
3360 3265 mt 5798 3265 L
3360 4261 mt 5798 4261 L
5798 4261 mt 5798 3265 L
3360 4261 mt 3360 3265 L
3360 4261 mt 5798 4261 L
3360 4261 mt 3360 3265 L
3360 3265 mt 5798 3265 L
3360 4261 mt 5798 4261 L
5798 4261 mt 5798 3265 L
3360 4261 mt 3360 3265 L
3835 3408 mt 
(44 x 16 Modified Proposed Method) s
gs 3360 3265 2439 997 rc
c8
365 0 3433 3365 2 MP stroke
gs 3542 3292 147 147 rc
-41 71 -41 -71 82 0 3574 3389 4 MP
DP
gr

gr

c8
0 sg
3835 3567 mt 
(44 x 16 Proposed Method) s
gs 3360 3265 2439 997 rc
c9
365 0 3433 3524 2 MP stroke
gs 3542 3451 147 147 rc
-41 71 -41 -71 82 0 3574 3548 4 MP
DP
gr

gr

c9
0 sg
3835 3726 mt 
(44 x 16 QualComm Hopping Pattern) s
gs 3360 3265 2439 997 rc
c10
365 0 3433 3683 2 MP stroke
gs 3542 3610 147 147 rc
-41 71 -41 -71 82 0 3574 3707 4 MP
DP
gr

gr

c10
0 sg
3835 3885 mt 
(44 x 16 Intel Hopping Pattern) s
gs 3360 3265 2439 997 rc
c11
365 0 3433 3842 2 MP stroke
gs 3542 3769 147 147 rc
-41 71 -41 -71 82 0 3574 3866 4 MP
DP
gr

gr

c11
0 sg
3835 4044 mt 
(44 x 16 Docomo Hopping Pattern) s
gs 3360 3265 2439 997 rc
c12
365 0 3433 4001 2 MP stroke
gs 3542 3928 147 147 rc
-41 71 -41 -71 82 0 3574 4025 4 MP
DP
gr

gr

c12
0 sg
3835 4203 mt 
(Maximum searchable UE numbers) s
gs 3360 3265 2439 997 rc
DO
365 0 3433 4160 2 MP stroke
SO
gr


end %%Color Dict

eplot
%%EndObject

epage
end

showpage

%%Trailer
%%EOF
