%!PS-Adobe-3.0 EPSF-3.0
%%Creator: MATLAB, The MathWorks, Inc. Version 8.2.0.701 (R2013b). Operating System: Microsoft Windows 7.
%%Title: C:\Users\Chris\Desktop\thesis\M44N16UE150.eps
%%CreationDate: 04/22/2014  19:27:39
%%DocumentNeededFonts: Helvetica
%%DocumentProcessColors: Cyan Magenta Yellow Black
%%LanguageLevel: 2
%%Pages: 1
%%BoundingBox:   -51   194   647   647
%%EndComments

%%BeginProlog
% MathWorks dictionary
/MathWorks 160 dict begin
% definition operators
/bdef {bind def} bind def
/ldef {load def} bind def
/xdef {exch def} bdef
/xstore {exch store} bdef
% operator abbreviations
/c  /clip ldef
/cc /concat ldef
/cp /closepath ldef
/gr /grestore ldef
/gs /gsave ldef
/mt /moveto ldef
/np /newpath ldef
/cm /currentmatrix ldef
/sm /setmatrix ldef
/rm /rmoveto ldef
/rl /rlineto ldef
/s {show newpath} bdef
/sc {setcmykcolor} bdef
/sr /setrgbcolor ldef
/sg /setgray ldef
/w /setlinewidth ldef
/j /setlinejoin ldef
/cap /setlinecap ldef
/rc {rectclip} bdef
/rf {rectfill} bdef
% page state control
/pgsv () def
/bpage {/pgsv save def} bdef
/epage {pgsv restore} bdef
/bplot /gsave ldef
/eplot {stroke grestore} bdef
% orientation switch
/portraitMode 0 def /landscapeMode 1 def /rotateMode 2 def
% coordinate system mappings
/dpi2point 0 def
% font control
/FontSize 0 def
/FMS {/FontSize xstore findfont [FontSize 0 0 FontSize neg 0 0]
  makefont setfont} bdef
/ISOLatin1Encoding where {pop /WindowsLatin1Encoding 256 array bdef
ISOLatin1Encoding WindowsLatin1Encoding copy pop
/.notdef/.notdef/quotesinglbase/florin/quotedblbase/ellipsis/dagger
/daggerdbl/circumflex/perthousand/Scaron/guilsinglleft/OE/.notdef/.notdef
/.notdef/.notdef/quoteleft/quoteright/quotedblleft/quotedblright/bullet
/endash/emdash/tilde/trademark/scaron/guilsinglright/oe/.notdef/.notdef
/Ydieresis WindowsLatin1Encoding 128 32 getinterval astore pop}
{/WindowsLatin1Encoding StandardEncoding bdef} ifelse
/reencode {exch dup where {pop load} {pop StandardEncoding} ifelse
  exch dup 3 1 roll findfont dup length dict begin
  { 1 index /FID ne {def}{pop pop} ifelse } forall
  /Encoding exch def currentdict end definefont pop} bdef
/isroman {findfont /CharStrings get /Agrave known} bdef
/FMSR {3 1 roll 1 index dup isroman {reencode} {pop pop} ifelse
  exch FMS} bdef
/csm {1 dpi2point div -1 dpi2point div scale neg translate
 dup landscapeMode eq {pop -90 rotate}
  {rotateMode eq {90 rotate} if} ifelse} bdef
% line types: solid, dotted, dashed, dotdash
/SO { [] 0 setdash } bdef
/DO { [.5 dpi2point mul 4 dpi2point mul] 0 setdash } bdef
/DA { [6 dpi2point mul] 0 setdash } bdef
/DD { [.5 dpi2point mul 4 dpi2point mul 6 dpi2point mul 4
  dpi2point mul] 0 setdash } bdef
% macros for lines and objects
/L {lineto stroke} bdef
/MP {3 1 roll moveto 1 sub {rlineto} repeat} bdef
/AP {{rlineto} repeat} bdef
/PDlw -1 def
/W {/PDlw currentlinewidth def setlinewidth} def
/PP {closepath eofill} bdef
/DP {closepath stroke} bdef
/MR {4 -2 roll moveto dup  0 exch rlineto exch 0 rlineto
  neg 0 exch rlineto closepath} bdef
/FR {MR stroke} bdef
/PR {MR fill} bdef
/L1i {{currentfile picstr readhexstring pop} image} bdef
/tMatrix matrix def
/MakeOval {newpath tMatrix currentmatrix pop translate scale
0 0 1 0 360 arc tMatrix setmatrix} bdef
/FO {MakeOval stroke} bdef
/PO {MakeOval fill} bdef
/PD {currentlinewidth 2 div 0 360 arc fill
   PDlw -1 eq not {PDlw w /PDlw -1 def} if} def
/FA {newpath tMatrix currentmatrix pop translate scale
  0 0 1 5 -2 roll arc tMatrix setmatrix stroke} bdef
/PA {newpath tMatrix currentmatrix pop	translate 0 0 moveto scale
  0 0 1 5 -2 roll arc closepath tMatrix setmatrix fill} bdef
/FAn {newpath tMatrix currentmatrix pop translate scale
  0 0 1 5 -2 roll arcn tMatrix setmatrix stroke} bdef
/PAn {newpath tMatrix currentmatrix pop translate 0 0 moveto scale
  0 0 1 5 -2 roll arcn closepath tMatrix setmatrix fill} bdef
/vradius 0 def /hradius 0 def /lry 0 def
/lrx 0 def /uly 0 def /ulx 0 def /rad 0 def
/MRR {/vradius xdef /hradius xdef /lry xdef /lrx xdef /uly xdef
  /ulx xdef newpath tMatrix currentmatrix pop ulx hradius add uly
  vradius add translate hradius vradius scale 0 0 1 180 270 arc 
  tMatrix setmatrix lrx hradius sub uly vradius add translate
  hradius vradius scale 0 0 1 270 360 arc tMatrix setmatrix
  lrx hradius sub lry vradius sub translate hradius vradius scale
  0 0 1 0 90 arc tMatrix setmatrix ulx hradius add lry vradius sub
  translate hradius vradius scale 0 0 1 90 180 arc tMatrix setmatrix
  closepath} bdef
/FRR {MRR stroke } bdef
/PRR {MRR fill } bdef
/MlrRR {/lry xdef /lrx xdef /uly xdef /ulx xdef /rad lry uly sub 2 div def
  newpath tMatrix currentmatrix pop ulx rad add uly rad add translate
  rad rad scale 0 0 1 90 270 arc tMatrix setmatrix lrx rad sub lry rad
  sub translate rad rad scale 0 0 1 270 90 arc tMatrix setmatrix
  closepath} bdef
/FlrRR {MlrRR stroke } bdef
/PlrRR {MlrRR fill } bdef
/MtbRR {/lry xdef /lrx xdef /uly xdef /ulx xdef /rad lrx ulx sub 2 div def
  newpath tMatrix currentmatrix pop ulx rad add uly rad add translate
  rad rad scale 0 0 1 180 360 arc tMatrix setmatrix lrx rad sub lry rad
  sub translate rad rad scale 0 0 1 0 180 arc tMatrix setmatrix
  closepath} bdef
/FtbRR {MtbRR stroke } bdef
/PtbRR {MtbRR fill } bdef
/stri 6 array def /dtri 6 array def
/smat 6 array def /dmat 6 array def
/tmat1 6 array def /tmat2 6 array def /dif 3 array def
/asub {/ind2 exch def /ind1 exch def dup dup
  ind1 get exch ind2 get sub exch } bdef
/tri_to_matrix {
  2 0 asub 3 1 asub 4 0 asub 5 1 asub
  dup 0 get exch 1 get 7 -1 roll astore } bdef
/compute_transform {
  dmat dtri tri_to_matrix tmat1 invertmatrix 
  smat stri tri_to_matrix tmat2 concatmatrix } bdef
/ds {stri astore pop} bdef
/dt {dtri astore pop} bdef
/db {2 copy /cols xdef /rows xdef mul dup 3 mul string
  currentfile 
  3 index 0 eq {/ASCIIHexDecode filter}
  {/ASCII85Decode filter 3 index 2 eq {/RunLengthDecode filter} if }
  ifelse exch readstring pop
  dup 0 3 index getinterval /rbmap xdef
  dup 2 index dup getinterval /gbmap xdef
  1 index dup 2 mul exch getinterval /bbmap xdef pop pop}bdef
/it {gs np dtri aload pop moveto lineto lineto cp c
  cols rows 8 compute_transform 
  rbmap gbmap bbmap true 3 colorimage gr}bdef
/il {newpath moveto lineto stroke}bdef
currentdict end def
%%EndProlog

%%BeginSetup
MathWorks begin

0 cap

end
%%EndSetup

%%Page: 1 1
%%BeginPageSetup
%%PageBoundingBox:   -51   194   647   647
MathWorks begin
bpage
%%EndPageSetup

%%BeginObject: obj1
bplot

/dpi2point 12 def
portraitMode -0612 7764 csm

    0     0  8376  5429 rc
88 dict begin %Colortable dictionary
/c0 { 0.000000 0.000000 0.000000 sr} bdef
/c1 { 1.000000 1.000000 1.000000 sr} bdef
/c2 { 0.900000 0.000000 0.000000 sr} bdef
/c3 { 0.000000 0.820000 0.000000 sr} bdef
/c4 { 0.000000 0.000000 0.800000 sr} bdef
/c5 { 0.910000 0.820000 0.320000 sr} bdef
/c6 { 1.000000 0.260000 0.820000 sr} bdef
/c7 { 0.000000 0.820000 0.820000 sr} bdef
c0
1 j
1 sg
   0    0 8377 5430 rf
6 w
0 4425 6491 0 0 -4425 1089 4832 4 MP
PP
-6491 0 0 4425 6491 0 0 -4425 1089 4832 5 MP stroke
4 w
DO
SO
6 w
0 sg
1089  407 mt 7580  407 L
1089 4832 mt 7580 4832 L
7580 4832 mt 7580  407 L
1089 4832 mt 1089  407 L
1089 4832 mt 7580 4832 L
1089 4832 mt 1089  407 L
1089 4832 mt 1089 4767 L
1089  407 mt 1089  471 L
%%IncludeResource: font Helvetica
/Helvetica /WindowsLatin1Encoding 120 FMSR

1056 4977 mt 
(1) s
1810 4832 mt 1810 4767 L
1810  407 mt 1810  471 L
1777 4977 mt 
(2) s
2531 4832 mt 2531 4767 L
2531  407 mt 2531  471 L
2498 4977 mt 
(3) s
3252 4832 mt 3252 4767 L
3252  407 mt 3252  471 L
3219 4977 mt 
(4) s
3973 4832 mt 3973 4767 L
3973  407 mt 3973  471 L
3940 4977 mt 
(5) s
4695 4832 mt 4695 4767 L
4695  407 mt 4695  471 L
4662 4977 mt 
(6) s
5416 4832 mt 5416 4767 L
5416  407 mt 5416  471 L
5383 4977 mt 
(7) s
6137 4832 mt 6137 4767 L
6137  407 mt 6137  471 L
6104 4977 mt 
(8) s
6858 4832 mt 6858 4767 L
6858  407 mt 6858  471 L
6825 4977 mt 
(9) s
7580 4832 mt 7580 4767 L
7580  407 mt 7580  471 L
7514 4977 mt 
(10) s
1089 4832 mt 1153 4832 L
7580 4832 mt 7515 4832 L
 921 4876 mt 
(70) s
1089 4278 mt 1153 4278 L
7580 4278 mt 7515 4278 L
 921 4322 mt 
(75) s
1089 3725 mt 1153 3725 L
7580 3725 mt 7515 3725 L
 921 3769 mt 
(80) s
1089 3172 mt 1153 3172 L
7580 3172 mt 7515 3172 L
 921 3216 mt 
(85) s
1089 2619 mt 1153 2619 L
7580 2619 mt 7515 2619 L
 921 2663 mt 
(90) s
1089 2066 mt 1153 2066 L
7580 2066 mt 7515 2066 L
 921 2110 mt 
(95) s
1089 1513 mt 1153 1513 L
7580 1513 mt 7515 1513 L
 854 1557 mt 
(100) s
1089  960 mt 1153  960 L
7580  960 mt 7515  960 L
 854 1004 mt 
(105) s
1089  407 mt 1153  407 L
7580  407 mt 7515  407 L
 854  451 mt 
(110) s
1089  407 mt 7580  407 L
1089 4832 mt 7580 4832 L
7580 4832 mt 7580  407 L
1089 4832 mt 1089  407 L
gs 1089 407 6492 4426 rc
/c8 { 0.000000 0.000000 1.000000 sr} bdef
c8
722 -22 721 -26 721 -35 721 -57 722 -95 721 -166 721 -365 721 -767 
721 -2233 1089 4654 10 MP stroke
gr

c8
0 j
-41 71 -41 -71 82 0 1048 4678 4 MP
DP
-41 71 -41 -71 82 0 1769 2445 4 MP
DP
-41 71 -41 -71 82 0 2490 1678 4 MP
DP
-41 71 -41 -71 82 0 3211 1313 4 MP
DP
-41 71 -41 -71 82 0 3932 1147 4 MP
DP
-41 71 -41 -71 82 0 4654 1052 4 MP
DP
-41 71 -41 -71 82 0 5375 995 4 MP
DP
-41 71 -41 -71 82 0 6096 960 4 MP
DP
-41 71 -41 -71 82 0 6817 934 4 MP
DP
-41 71 -41 -71 82 0 7539 912 4 MP
DP
gs 1089 407 6492 4426 rc
/c9 { 0.000000 1.000000 0.000000 sr} bdef
c9
722 -39 721 -48 721 -57 721 -80 722 -121 721 -197 721 -368 721 -719 
721 -1841 1089 4654 10 MP stroke
gr

c9
-41 71 -41 -71 82 0 1048 4678 4 MP
DP
-41 71 -41 -71 82 0 1769 2837 4 MP
DP
-41 71 -41 -71 82 0 2490 2118 4 MP
DP
-41 71 -41 -71 82 0 3211 1750 4 MP
DP
-41 71 -41 -71 82 0 3932 1553 4 MP
DP
-41 71 -41 -71 82 0 4654 1432 4 MP
DP
-41 71 -41 -71 82 0 5375 1352 4 MP
DP
-41 71 -41 -71 82 0 6096 1295 4 MP
DP
-41 71 -41 -71 82 0 6817 1247 4 MP
DP
-41 71 -41 -71 82 0 7539 1208 4 MP
DP
gs 1089 407 6492 4426 rc
/c10 { 1.000000 0.000000 0.000000 sr} bdef
c10
722 -33 721 -37 721 -49 721 -62 722 -108 721 -185 721 -389 721 -772 
721 -2109 1089 4654 10 MP stroke
gr

c10
-41 71 -41 -71 82 0 1048 4678 4 MP
DP
-41 71 -41 -71 82 0 1769 2569 4 MP
DP
-41 71 -41 -71 82 0 2490 1797 4 MP
DP
-41 71 -41 -71 82 0 3211 1408 4 MP
DP
-41 71 -41 -71 82 0 3932 1223 4 MP
DP
-41 71 -41 -71 82 0 4654 1115 4 MP
DP
-41 71 -41 -71 82 0 5375 1053 4 MP
DP
-41 71 -41 -71 82 0 6096 1004 4 MP
DP
-41 71 -41 -71 82 0 6817 967 4 MP
DP
-41 71 -41 -71 82 0 7539 934 4 MP
DP
gs 1089 407 6492 4426 rc
/c11 { 0.000000 1.000000 1.000000 sr} bdef
c11
722 -1 721 -1 721 -2 721 -9 722 -36 721 -80 721 -326 721 -561 
721 -2240 1089 4654 10 MP stroke
gr

c11
-41 71 -41 -71 82 0 1048 4678 4 MP
DP
-41 71 -41 -71 82 0 1769 2438 4 MP
DP
-41 71 -41 -71 82 0 2490 1877 4 MP
DP
-41 71 -41 -71 82 0 3211 1551 4 MP
DP
-41 71 -41 -71 82 0 3932 1471 4 MP
DP
-41 71 -41 -71 82 0 4654 1435 4 MP
DP
-41 71 -41 -71 82 0 5375 1426 4 MP
DP
-41 71 -41 -71 82 0 6096 1424 4 MP
DP
-41 71 -41 -71 82 0 6817 1423 4 MP
DP
-41 71 -41 -71 82 0 7539 1422 4 MP
DP
gs 1089 407 6492 4426 rc
/c12 { 1.000000 0.000000 1.000000 sr} bdef
c12
722 -6 721 -30 721 -36 721 -54 722 -93 721 -168 721 -370 721 -771 
721 -2173 1089 4654 10 MP stroke
gr

c12
-41 71 -41 -71 82 0 1048 4678 4 MP
DP
-41 71 -41 -71 82 0 1769 2505 4 MP
DP
-41 71 -41 -71 82 0 2490 1734 4 MP
DP
-41 71 -41 -71 82 0 3211 1364 4 MP
DP
-41 71 -41 -71 82 0 3932 1196 4 MP
DP
-41 71 -41 -71 82 0 4654 1103 4 MP
DP
-41 71 -41 -71 82 0 5375 1049 4 MP
DP
-41 71 -41 -71 82 0 6096 1013 4 MP
DP
-41 71 -41 -71 82 0 6817 983 4 MP
DP
-41 71 -41 -71 82 0 7539 977 4 MP
DP
gs 1089 407 6492 4426 rc
DO
0 sg
722 0 721 0 721 0 721 0 722 0 721 0 721 0 721 0 
721 0 1089 755 10 MP stroke
gr

0 sg
DO
3896 5120 mt 
(discovery period) s
 772 3463 mt  -90 rotate
(Average discovered UE number) s
90 rotate
2776  312 mt 
(Type 2B, M = 44, N = 16, UE = 150, Monte Carlo tries = 10) s
1072 4875 mt 
( ) s
7564  449 mt 
( ) s
SO
1 sg
0 996 2438 0 0 -996 5067 4741 4 MP
PP
-2438 0 0 996 2438 0 0 -996 5067 4741 5 MP stroke
4 w
DO
SO
6 w
0 sg
5067 3745 mt 7505 3745 L
5067 4741 mt 7505 4741 L
7505 4741 mt 7505 3745 L
5067 4741 mt 5067 3745 L
5067 4741 mt 7505 4741 L
5067 4741 mt 5067 3745 L
5067 3745 mt 7505 3745 L
5067 4741 mt 7505 4741 L
7505 4741 mt 7505 3745 L
5067 4741 mt 5067 3745 L
5542 3888 mt 
(44 x 16 Modified Proposed Method) s
gs 5067 3745 2439 997 rc
c8
365 0 5140 3845 2 MP stroke
gs 5249 3772 147 147 rc
-41 71 -41 -71 82 0 5281 3869 4 MP
DP
gr

gr

c8
0 sg
5542 4047 mt 
(44 x 16 Proposed Method) s
gs 5067 3745 2439 997 rc
c9
365 0 5140 4004 2 MP stroke
gs 5249 3931 147 147 rc
-41 71 -41 -71 82 0 5281 4028 4 MP
DP
gr

gr

c9
0 sg
5542 4206 mt 
(44 x 16 QualComm Hopping Pattern) s
gs 5067 3745 2439 997 rc
c10
365 0 5140 4163 2 MP stroke
gs 5249 4090 147 147 rc
-41 71 -41 -71 82 0 5281 4187 4 MP
DP
gr

gr

c10
0 sg
5542 4365 mt 
(44 x 16 Intel Hopping Pattern) s
gs 5067 3745 2439 997 rc
c11
365 0 5140 4322 2 MP stroke
gs 5249 4249 147 147 rc
-41 71 -41 -71 82 0 5281 4346 4 MP
DP
gr

gr

c11
0 sg
5542 4524 mt 
(44 x 16 Docomo Hopping Pattern) s
gs 5067 3745 2439 997 rc
c12
365 0 5140 4481 2 MP stroke
gs 5249 4408 147 147 rc
-41 71 -41 -71 82 0 5281 4505 4 MP
DP
gr

gr

c12
0 sg
5542 4683 mt 
(Maximum searchable UE numbers) s
gs 5067 3745 2439 997 rc
DO
365 0 5140 4640 2 MP stroke
SO
gr


end %%Color Dict

eplot
%%EndObject

epage
end

showpage

%%Trailer
%%EOF
