%!PS-Adobe-3.0 EPSF-3.0
%%Creator: MATLAB, The MathWorks, Inc. Version 8.2.0.701 (R2013b). Operating System: Microsoft Windows 7.
%%Title: C:\Users\Chris\Desktop\thesis\oneuedrop.eps
%%CreationDate: 04/23/2014  16:06:47
%%DocumentNeededFonts: Helvetica
%%DocumentProcessColors: Cyan Magenta Yellow Black
%%LanguageLevel: 2
%%Pages: 1
%%BoundingBox:    25   215   568   627
%%EndComments

%%BeginProlog
% MathWorks dictionary
/MathWorks 160 dict begin
% definition operators
/bdef {bind def} bind def
/ldef {load def} bind def
/xdef {exch def} bdef
/xstore {exch store} bdef
% operator abbreviations
/c  /clip ldef
/cc /concat ldef
/cp /closepath ldef
/gr /grestore ldef
/gs /gsave ldef
/mt /moveto ldef
/np /newpath ldef
/cm /currentmatrix ldef
/sm /setmatrix ldef
/rm /rmoveto ldef
/rl /rlineto ldef
/s {show newpath} bdef
/sc {setcmykcolor} bdef
/sr /setrgbcolor ldef
/sg /setgray ldef
/w /setlinewidth ldef
/j /setlinejoin ldef
/cap /setlinecap ldef
/rc {rectclip} bdef
/rf {rectfill} bdef
% page state control
/pgsv () def
/bpage {/pgsv save def} bdef
/epage {pgsv restore} bdef
/bplot /gsave ldef
/eplot {stroke grestore} bdef
% orientation switch
/portraitMode 0 def /landscapeMode 1 def /rotateMode 2 def
% coordinate system mappings
/dpi2point 0 def
% font control
/FontSize 0 def
/FMS {/FontSize xstore findfont [FontSize 0 0 FontSize neg 0 0]
  makefont setfont} bdef
/ISOLatin1Encoding where {pop /WindowsLatin1Encoding 256 array bdef
ISOLatin1Encoding WindowsLatin1Encoding copy pop
/.notdef/.notdef/quotesinglbase/florin/quotedblbase/ellipsis/dagger
/daggerdbl/circumflex/perthousand/Scaron/guilsinglleft/OE/.notdef/.notdef
/.notdef/.notdef/quoteleft/quoteright/quotedblleft/quotedblright/bullet
/endash/emdash/tilde/trademark/scaron/guilsinglright/oe/.notdef/.notdef
/Ydieresis WindowsLatin1Encoding 128 32 getinterval astore pop}
{/WindowsLatin1Encoding StandardEncoding bdef} ifelse
/reencode {exch dup where {pop load} {pop StandardEncoding} ifelse
  exch dup 3 1 roll findfont dup length dict begin
  { 1 index /FID ne {def}{pop pop} ifelse } forall
  /Encoding exch def currentdict end definefont pop} bdef
/isroman {findfont /CharStrings get /Agrave known} bdef
/FMSR {3 1 roll 1 index dup isroman {reencode} {pop pop} ifelse
  exch FMS} bdef
/csm {1 dpi2point div -1 dpi2point div scale neg translate
 dup landscapeMode eq {pop -90 rotate}
  {rotateMode eq {90 rotate} if} ifelse} bdef
% line types: solid, dotted, dashed, dotdash
/SO { [] 0 setdash } bdef
/DO { [.5 dpi2point mul 4 dpi2point mul] 0 setdash } bdef
/DA { [6 dpi2point mul] 0 setdash } bdef
/DD { [.5 dpi2point mul 4 dpi2point mul 6 dpi2point mul 4
  dpi2point mul] 0 setdash } bdef
% macros for lines and objects
/L {lineto stroke} bdef
/MP {3 1 roll moveto 1 sub {rlineto} repeat} bdef
/AP {{rlineto} repeat} bdef
/PDlw -1 def
/W {/PDlw currentlinewidth def setlinewidth} def
/PP {closepath eofill} bdef
/DP {closepath stroke} bdef
/MR {4 -2 roll moveto dup  0 exch rlineto exch 0 rlineto
  neg 0 exch rlineto closepath} bdef
/FR {MR stroke} bdef
/PR {MR fill} bdef
/L1i {{currentfile picstr readhexstring pop} image} bdef
/tMatrix matrix def
/MakeOval {newpath tMatrix currentmatrix pop translate scale
0 0 1 0 360 arc tMatrix setmatrix} bdef
/FO {MakeOval stroke} bdef
/PO {MakeOval fill} bdef
/PD {currentlinewidth 2 div 0 360 arc fill
   PDlw -1 eq not {PDlw w /PDlw -1 def} if} def
/FA {newpath tMatrix currentmatrix pop translate scale
  0 0 1 5 -2 roll arc tMatrix setmatrix stroke} bdef
/PA {newpath tMatrix currentmatrix pop	translate 0 0 moveto scale
  0 0 1 5 -2 roll arc closepath tMatrix setmatrix fill} bdef
/FAn {newpath tMatrix currentmatrix pop translate scale
  0 0 1 5 -2 roll arcn tMatrix setmatrix stroke} bdef
/PAn {newpath tMatrix currentmatrix pop translate 0 0 moveto scale
  0 0 1 5 -2 roll arcn closepath tMatrix setmatrix fill} bdef
/vradius 0 def /hradius 0 def /lry 0 def
/lrx 0 def /uly 0 def /ulx 0 def /rad 0 def
/MRR {/vradius xdef /hradius xdef /lry xdef /lrx xdef /uly xdef
  /ulx xdef newpath tMatrix currentmatrix pop ulx hradius add uly
  vradius add translate hradius vradius scale 0 0 1 180 270 arc 
  tMatrix setmatrix lrx hradius sub uly vradius add translate
  hradius vradius scale 0 0 1 270 360 arc tMatrix setmatrix
  lrx hradius sub lry vradius sub translate hradius vradius scale
  0 0 1 0 90 arc tMatrix setmatrix ulx hradius add lry vradius sub
  translate hradius vradius scale 0 0 1 90 180 arc tMatrix setmatrix
  closepath} bdef
/FRR {MRR stroke } bdef
/PRR {MRR fill } bdef
/MlrRR {/lry xdef /lrx xdef /uly xdef /ulx xdef /rad lry uly sub 2 div def
  newpath tMatrix currentmatrix pop ulx rad add uly rad add translate
  rad rad scale 0 0 1 90 270 arc tMatrix setmatrix lrx rad sub lry rad
  sub translate rad rad scale 0 0 1 270 90 arc tMatrix setmatrix
  closepath} bdef
/FlrRR {MlrRR stroke } bdef
/PlrRR {MlrRR fill } bdef
/MtbRR {/lry xdef /lrx xdef /uly xdef /ulx xdef /rad lrx ulx sub 2 div def
  newpath tMatrix currentmatrix pop ulx rad add uly rad add translate
  rad rad scale 0 0 1 180 360 arc tMatrix setmatrix lrx rad sub lry rad
  sub translate rad rad scale 0 0 1 0 180 arc tMatrix setmatrix
  closepath} bdef
/FtbRR {MtbRR stroke } bdef
/PtbRR {MtbRR fill } bdef
/stri 6 array def /dtri 6 array def
/smat 6 array def /dmat 6 array def
/tmat1 6 array def /tmat2 6 array def /dif 3 array def
/asub {/ind2 exch def /ind1 exch def dup dup
  ind1 get exch ind2 get sub exch } bdef
/tri_to_matrix {
  2 0 asub 3 1 asub 4 0 asub 5 1 asub
  dup 0 get exch 1 get 7 -1 roll astore } bdef
/compute_transform {
  dmat dtri tri_to_matrix tmat1 invertmatrix 
  smat stri tri_to_matrix tmat2 concatmatrix } bdef
/ds {stri astore pop} bdef
/dt {dtri astore pop} bdef
/db {2 copy /cols xdef /rows xdef mul dup 3 mul string
  currentfile 
  3 index 0 eq {/ASCIIHexDecode filter}
  {/ASCII85Decode filter 3 index 2 eq {/RunLengthDecode filter} if }
  ifelse exch readstring pop
  dup 0 3 index getinterval /rbmap xdef
  dup 2 index dup getinterval /gbmap xdef
  1 index dup 2 mul exch getinterval /bbmap xdef pop pop}bdef
/it {gs np dtri aload pop moveto lineto lineto cp c
  cols rows 8 compute_transform 
  rbmap gbmap bbmap true 3 colorimage gr}bdef
/il {newpath moveto lineto stroke}bdef
currentdict end def
%%EndProlog

%%BeginSetup
MathWorks begin

0 cap

end
%%EndSetup

%%Page: 1 1
%%BeginPageSetup
%%PageBoundingBox:    25   215   568   627
MathWorks begin
bpage
%%EndPageSetup

%%BeginObject: obj1
bplot

/dpi2point 12 def
portraitMode 0300 7524 csm

    0     0  6522  4943 rc
86 dict begin %Colortable dictionary
/c0 { 0.000000 0.000000 0.000000 sr} bdef
/c1 { 1.000000 1.000000 1.000000 sr} bdef
/c2 { 0.900000 0.000000 0.000000 sr} bdef
/c3 { 0.000000 0.820000 0.000000 sr} bdef
/c4 { 0.000000 0.000000 0.800000 sr} bdef
/c5 { 0.910000 0.820000 0.320000 sr} bdef
/c6 { 1.000000 0.260000 0.820000 sr} bdef
/c7 { 0.000000 0.820000 0.820000 sr} bdef
c0
1 j
1 sg
   0    0 6523 4944 rf
6 w
0 4029 5054 0 0 -4029 848 4399 4 MP
PP
-5054 0 0 4029 5054 0 0 -4029 848 4399 5 MP stroke
4 w
DO
SO
6 w
0 sg
 848  370 mt 5902  370 L
 848 4399 mt 5902 4399 L
5902 4399 mt 5902  370 L
 848 4399 mt  848  370 L
 848 4399 mt 5902 4399 L
 848 4399 mt  848  370 L
 848 4399 mt  848 4348 L
 848  371 mt  848  421 L
%%IncludeResource: font Helvetica
/Helvetica /WindowsLatin1Encoding 120 FMSR

 678 4544 mt 
(-200) s
1479 4399 mt 1479 4348 L
1479  371 mt 1479  421 L
1309 4544 mt 
(-150) s
2111 4399 mt 2111 4348 L
2111  371 mt 2111  421 L
1941 4544 mt 
(-100) s
2743 4399 mt 2743 4348 L
2743  371 mt 2743  421 L
2607 4544 mt 
(-50) s
3375 4399 mt 3375 4348 L
3375  371 mt 3375  421 L
3342 4544 mt 
(0) s
4006 4399 mt 4006 4348 L
4006  371 mt 4006  421 L
3940 4544 mt 
(50) s
4638 4399 mt 4638 4348 L
4638  371 mt 4638  421 L
4538 4544 mt 
(100) s
5270 4399 mt 5270 4348 L
5270  371 mt 5270  421 L
5170 4544 mt 
(150) s
5902 4399 mt 5902 4348 L
5902  371 mt 5902  421 L
5802 4544 mt 
(200) s
 848 4399 mt  898 4399 L
5902 4399 mt 5851 4399 L
 543 4443 mt 
(-150) s
 848 3727 mt  898 3727 L
5902 3727 mt 5851 3727 L
 543 3771 mt 
(-100) s
 848 3056 mt  898 3056 L
5902 3056 mt 5851 3056 L
 610 3100 mt 
(-50) s
 848 2385 mt  898 2385 L
5902 2385 mt 5851 2385 L
 747 2429 mt 
(0) s
 848 1713 mt  898 1713 L
5902 1713 mt 5851 1713 L
 680 1757 mt 
(50) s
 848 1042 mt  898 1042 L
5902 1042 mt 5851 1042 L
 613 1086 mt 
(100) s
 848  371 mt  898  371 L
5902  371 mt 5851  371 L
 613  415 mt 
(150) s
 848  370 mt 5902  370 L
 848 4399 mt 5902 4399 L
5902 4399 mt 5902  370 L
 848 4399 mt  848  370 L
gs 848 371 5055 4029 rc
gr

/c8 { 1.000000 0.000000 0.000000 sr} bdef
c8
1880 2782 mt 1952 2782 L
1916 2746 mt 1916 2818 L
1891 2757 mt 1941 2807 L
1941 2757 mt 1891 2807 L
gs 848 371 5055 4029 rc
gr

/c9 { 0.000000 0.000000 1.000000 sr} bdef
c9
2204 2157 mt 2276 2157 L
2240 2121 mt 2240 2193 L
1801 2472 mt 1873 2472 L
1837 2436 mt 1837 2508 L
2633 2476 mt 2705 2476 L
2669 2440 mt 2669 2512 L
2415 2188 mt 2487 2188 L
2451 2152 mt 2451 2224 L
3008 2655 mt 3080 2655 L
3044 2619 mt 3044 2691 L
2655 2527 mt 2727 2527 L
2691 2491 mt 2691 2563 L
1874 2586 mt 1946 2586 L
1910 2550 mt 1910 2622 L
3158 2267 mt 3230 2267 L
3194 2231 mt 3194 2303 L
3115 2319 mt 3187 2319 L
3151 2283 mt 3151 2355 L
2721 2428 mt 2793 2428 L
2757 2392 mt 2757 2464 L
2344 2329 mt 2416 2329 L
2380 2293 mt 2380 2365 L
2278 2659 mt 2350 2659 L
2314 2623 mt 2314 2695 L
3128 2175 mt 3200 2175 L
3164 2139 mt 3164 2211 L
2152 2730 mt 2224 2730 L
2188 2694 mt 2188 2766 L
2187 2804 mt 2259 2804 L
2223 2768 mt 2223 2840 L
2346 2705 mt 2418 2705 L
2382 2669 mt 2382 2741 L
2651 2783 mt 2723 2783 L
2687 2747 mt 2687 2819 L
2900 2581 mt 2972 2581 L
2936 2545 mt 2936 2617 L
2407 2548 mt 2479 2548 L
2443 2512 mt 2443 2584 L
2468 2265 mt 2540 2265 L
2504 2229 mt 2504 2301 L
2057 2693 mt 2129 2693 L
2093 2657 mt 2093 2729 L
2420 2665 mt 2492 2665 L
2456 2629 mt 2456 2701 L
2136 2701 mt 2208 2701 L
2172 2665 mt 2172 2737 L
3175 2785 mt 3247 2785 L
3211 2749 mt 3211 2821 L
2630 2224 mt 2702 2224 L
2666 2188 mt 2666 2260 L
3110 2533 mt 3182 2533 L
3146 2497 mt 3146 2569 L
2347 2620 mt 2419 2620 L
2383 2584 mt 2383 2656 L
3160 2759 mt 3232 2759 L
3196 2723 mt 3196 2795 L
2649 2306 mt 2721 2306 L
2685 2270 mt 2685 2342 L
3201 2558 mt 3273 2558 L
3237 2522 mt 3237 2594 L
2356 2489 mt 2428 2489 L
2392 2453 mt 2392 2525 L
2385 2425 mt 2457 2425 L
2421 2389 mt 2421 2461 L
2076 2503 mt 2148 2503 L
2112 2467 mt 2112 2539 L
2282 2296 mt 2354 2296 L
2318 2260 mt 2318 2332 L
2137 2389 mt 2209 2389 L
2173 2353 mt 2173 2425 L
2591 2369 mt 2663 2369 L
2627 2333 mt 2627 2405 L
3109 2636 mt 3181 2636 L
3145 2600 mt 3145 2672 L
2540 2273 mt 2612 2273 L
2576 2237 mt 2576 2309 L
2713 2184 mt 2785 2184 L
2749 2148 mt 2749 2220 L
3169 2557 mt 3241 2557 L
3205 2521 mt 3205 2593 L
2757 2698 mt 2829 2698 L
2793 2662 mt 2793 2734 L
1992 2444 mt 2064 2444 L
2028 2408 mt 2028 2480 L
4234 4109 mt 4306 4109 L
4270 4073 mt 4270 4145 L
1747 2431 mt 1819 2431 L
1783 2395 mt 1783 2467 L
4194 3319 mt 4266 3319 L
4230 3283 mt 4230 3355 L
2214 1566 mt 2286 1566 L
2250 1530 mt 2250 1602 L
2215 2132 mt 2265 2182 L
2265 2132 mt 2215 2182 L
1812 2447 mt 1862 2497 L
1862 2447 mt 1812 2497 L
2644 2451 mt 2694 2501 L
2694 2451 mt 2644 2501 L
2426 2163 mt 2476 2213 L
2476 2163 mt 2426 2213 L
3019 2630 mt 3069 2680 L
3069 2630 mt 3019 2680 L
2666 2502 mt 2716 2552 L
2716 2502 mt 2666 2552 L
1885 2561 mt 1935 2611 L
1935 2561 mt 1885 2611 L
3169 2242 mt 3219 2292 L
3219 2242 mt 3169 2292 L
3126 2294 mt 3176 2344 L
3176 2294 mt 3126 2344 L
2732 2403 mt 2782 2453 L
2782 2403 mt 2732 2453 L
2355 2304 mt 2405 2354 L
2405 2304 mt 2355 2354 L
2289 2634 mt 2339 2684 L
2339 2634 mt 2289 2684 L
3139 2150 mt 3189 2200 L
3189 2150 mt 3139 2200 L
2163 2705 mt 2213 2755 L
2213 2705 mt 2163 2755 L
2198 2779 mt 2248 2829 L
2248 2779 mt 2198 2829 L
2357 2680 mt 2407 2730 L
2407 2680 mt 2357 2730 L
2662 2758 mt 2712 2808 L
2712 2758 mt 2662 2808 L
2911 2556 mt 2961 2606 L
2961 2556 mt 2911 2606 L
2418 2523 mt 2468 2573 L
2468 2523 mt 2418 2573 L
2479 2240 mt 2529 2290 L
2529 2240 mt 2479 2290 L
2068 2668 mt 2118 2718 L
2118 2668 mt 2068 2718 L
2431 2640 mt 2481 2690 L
2481 2640 mt 2431 2690 L
2147 2676 mt 2197 2726 L
2197 2676 mt 2147 2726 L
3186 2760 mt 3236 2810 L
3236 2760 mt 3186 2810 L
2641 2199 mt 2691 2249 L
2691 2199 mt 2641 2249 L
3121 2508 mt 3171 2558 L
3171 2508 mt 3121 2558 L
2358 2595 mt 2408 2645 L
2408 2595 mt 2358 2645 L
3171 2734 mt 3221 2784 L
3221 2734 mt 3171 2784 L
2660 2281 mt 2710 2331 L
2710 2281 mt 2660 2331 L
3212 2533 mt 3262 2583 L
3262 2533 mt 3212 2583 L
2367 2464 mt 2417 2514 L
2417 2464 mt 2367 2514 L
2396 2400 mt 2446 2450 L
2446 2400 mt 2396 2450 L
2087 2478 mt 2137 2528 L
2137 2478 mt 2087 2528 L
2293 2271 mt 2343 2321 L
2343 2271 mt 2293 2321 L
2148 2364 mt 2198 2414 L
2198 2364 mt 2148 2414 L
2602 2344 mt 2652 2394 L
2652 2344 mt 2602 2394 L
3120 2611 mt 3170 2661 L
3170 2611 mt 3120 2661 L
2551 2248 mt 2601 2298 L
2601 2248 mt 2551 2298 L
2724 2159 mt 2774 2209 L
2774 2159 mt 2724 2209 L
3180 2532 mt 3230 2582 L
3230 2532 mt 3180 2582 L
2768 2673 mt 2818 2723 L
2818 2673 mt 2768 2723 L
2003 2419 mt 2053 2469 L
2053 2419 mt 2003 2469 L
4245 4084 mt 4295 4134 L
4295 4084 mt 4245 4134 L
1758 2406 mt 1808 2456 L
1808 2406 mt 1758 2456 L
4205 3294 mt 4255 3344 L
4255 3294 mt 4205 3344 L
2225 1541 mt 2275 1591 L
2275 1541 mt 2225 1591 L
gs 848 371 5055 4029 rc
gr

/c10 { 0.000000 1.000000 0.000000 sr} bdef
c10
2937 2769 mt 3009 2769 L
2973 2733 mt 2973 2805 L
2065 2636 mt 2137 2636 L
2101 2600 mt 2101 2672 L
2758 2272 mt 2830 2272 L
2794 2236 mt 2794 2308 L
3200 2801 mt 3272 2801 L
3236 2765 mt 3236 2837 L
3029 2714 mt 3101 2714 L
3065 2678 mt 3065 2750 L
3022 2553 mt 3094 2553 L
3058 2517 mt 3058 2589 L
3040 2428 mt 3112 2428 L
3076 2392 mt 3076 2464 L
3038 2394 mt 3110 2394 L
3074 2358 mt 3074 2430 L
3104 2254 mt 3176 2254 L
3140 2218 mt 3140 2290 L
2650 2779 mt 2722 2779 L
2686 2743 mt 2686 2815 L
2075 2816 mt 2147 2816 L
2111 2780 mt 2111 2852 L
3090 2722 mt 3162 2722 L
3126 2686 mt 3126 2758 L
2506 2443 mt 2578 2443 L
2542 2407 mt 2542 2479 L
2638 2721 mt 2710 2721 L
2674 2685 mt 2674 2757 L
2884 2302 mt 2956 2302 L
2920 2266 mt 2920 2338 L
2964 2695 mt 3036 2695 L
3000 2659 mt 3000 2731 L
1773 2703 mt 1845 2703 L
1809 2667 mt 1809 2739 L
2896 2275 mt 2968 2275 L
2932 2239 mt 2932 2311 L
2928 2581 mt 3000 2581 L
2964 2545 mt 2964 2617 L
2262 2290 mt 2334 2290 L
2298 2254 mt 2298 2326 L
2766 2401 mt 2838 2401 L
2802 2365 mt 2802 2437 L
2310 2152 mt 2382 2152 L
2346 2116 mt 2346 2188 L
2805 2464 mt 2877 2464 L
2841 2428 mt 2841 2500 L
1971 2358 mt 2043 2358 L
2007 2322 mt 2007 2394 L
3160 2307 mt 3232 2307 L
3196 2271 mt 3196 2343 L
2894 2356 mt 2966 2356 L
2930 2320 mt 2930 2392 L
1992 2684 mt 2064 2684 L
2028 2648 mt 2028 2720 L
2969 2350 mt 3041 2350 L
3005 2314 mt 3005 2386 L
2691 2426 mt 2763 2426 L
2727 2390 mt 2727 2462 L
3076 2204 mt 3148 2204 L
3112 2168 mt 3112 2240 L
2854 2596 mt 2926 2596 L
2890 2560 mt 2890 2632 L
1962 2586 mt 2034 2586 L
1998 2550 mt 1998 2622 L
1981 2811 mt 2053 2811 L
2017 2775 mt 2017 2847 L
2227 2655 mt 2299 2655 L
2263 2619 mt 2263 2691 L
2262 2602 mt 2334 2602 L
2298 2566 mt 2298 2638 L
2503 2338 mt 2575 2338 L
2539 2302 mt 2539 2374 L
2798 2421 mt 2870 2421 L
2834 2385 mt 2834 2457 L
2705 2636 mt 2777 2636 L
2741 2600 mt 2741 2672 L
2887 2631 mt 2959 2631 L
2923 2595 mt 2923 2667 L
2542 2656 mt 2614 2656 L
2578 2620 mt 2578 2692 L
2318 2427 mt 2390 2427 L
2354 2391 mt 2354 2463 L
3080 2669 mt 3152 2669 L
3116 2633 mt 3116 2705 L
2769 2421 mt 2841 2421 L
2805 2385 mt 2805 2457 L
2793 2712 mt 2865 2712 L
2829 2676 mt 2829 2748 L
1955 2772 mt 2027 2772 L
1991 2736 mt 1991 2808 L
2068 2157 mt 2140 2157 L
2104 2121 mt 2104 2193 L
2015 2338 mt 2087 2338 L
2051 2302 mt 2051 2374 L
2553 2643 mt 2625 2643 L
2589 2607 mt 2589 2679 L
2823 2239 mt 2895 2239 L
2859 2203 mt 2859 2275 L
2351 2588 mt 2423 2588 L
2387 2552 mt 2387 2624 L
2286 2624 mt 2358 2624 L
2322 2588 mt 2322 2660 L
2476 2305 mt 2548 2305 L
2512 2269 mt 2512 2341 L
2672 2807 mt 2744 2807 L
2708 2771 mt 2708 2843 L
1776 2244 mt 1848 2244 L
1812 2208 mt 1812 2280 L
2397 2634 mt 2469 2634 L
2433 2598 mt 2433 2670 L
2294 2713 mt 2366 2713 L
2330 2677 mt 2330 2749 L
2715 2698 mt 2787 2698 L
2751 2662 mt 2751 2734 L
2561 2642 mt 2633 2642 L
2597 2606 mt 2597 2678 L
2461 2285 mt 2533 2285 L
2497 2249 mt 2497 2321 L
2997 2585 mt 3069 2585 L
3033 2549 mt 3033 2621 L
2013 2614 mt 2085 2614 L
2049 2578 mt 2049 2650 L
2189 2295 mt 2261 2295 L
2225 2259 mt 2225 2331 L
2959 2306 mt 3031 2306 L
2995 2270 mt 2995 2342 L
2178 2264 mt 2250 2264 L
2214 2228 mt 2214 2300 L
2333 2338 mt 2405 2338 L
2369 2302 mt 2369 2374 L
1773 2466 mt 1845 2466 L
1809 2430 mt 1809 2502 L
2237 2346 mt 2309 2346 L
2273 2310 mt 2273 2382 L
2777 2229 mt 2849 2229 L
2813 2193 mt 2813 2265 L
1851 2820 mt 1923 2820 L
1887 2784 mt 1887 2856 L
2229 2282 mt 2301 2282 L
2265 2246 mt 2265 2318 L
2470 2563 mt 2542 2563 L
2506 2527 mt 2506 2599 L
2555 2566 mt 2627 2566 L
2591 2530 mt 2591 2602 L
2033 2777 mt 2105 2777 L
2069 2741 mt 2069 2813 L
2137 2194 mt 2209 2194 L
2173 2158 mt 2173 2230 L
2308 2772 mt 2380 2772 L
2344 2736 mt 2344 2808 L
1868 2205 mt 1940 2205 L
1904 2169 mt 1904 2241 L
2596 2173 mt 2668 2173 L
2632 2137 mt 2632 2209 L
2946 3907 mt 3018 3907 L
2982 3871 mt 2982 3943 L
4137 1226 mt 4209 1226 L
4173 1190 mt 4173 1262 L
3631 3937 mt 3703 3937 L
3667 3901 mt 3667 3973 L
2998 2912 mt 3070 2912 L
3034 2876 mt 3034 2948 L
2779 3011 mt 2851 3011 L
2815 2975 mt 2815 3047 L
2965  962 mt 3037  962 L
3001  926 mt 3001  998 L
2025 2041 mt 2097 2041 L
2061 2005 mt 2061 2077 L
2881 1103 mt 2953 1103 L
2917 1067 mt 2917 1139 L
2180 1138 mt 2252 1138 L
2216 1102 mt 2216 1174 L
2314 4006 mt 2386 4006 L
2350 3970 mt 2350 4042 L
3109 3617 mt 3181 3617 L
3145 3581 mt 3145 3653 L
3959 2909 mt 4031 2909 L
3995 2873 mt 3995 2945 L
3254  461 mt 3326  461 L
3290  425 mt 3290  497 L
3282 1073 mt 3354 1073 L
3318 1037 mt 3318 1109 L
3801 1350 mt 3873 1350 L
3837 1314 mt 3837 1386 L
4210 4279 mt 4282 4279 L
4246 4243 mt 4246 4315 L
2761  821 mt 2833  821 L
2797  785 mt 2797  857 L
4142  495 mt 4214  495 L
4178  459 mt 4178  531 L
3506 1956 mt 3578 1956 L
3542 1920 mt 3542 1992 L
4126 3943 mt 4198 3943 L
4162 3907 mt 4162 3979 L
3705 3940 mt 3777 3940 L
3741 3904 mt 3741 3976 L
2303 3984 mt 2375 3984 L
2339 3948 mt 2339 4020 L
2609 3189 mt 2681 3189 L
2645 3153 mt 2645 3225 L
4888 1739 mt 4960 1739 L
4924 1703 mt 4924 1775 L
2488 1714 mt 2560 1714 L
2524 1678 mt 2524 1750 L
3349 2564 mt 3421 2564 L
3385 2528 mt 3385 2600 L
2948 2744 mt 2998 2794 L
2998 2744 mt 2948 2794 L
2076 2611 mt 2126 2661 L
2126 2611 mt 2076 2661 L
2769 2247 mt 2819 2297 L
2819 2247 mt 2769 2297 L
3211 2776 mt 3261 2826 L
3261 2776 mt 3211 2826 L
3040 2689 mt 3090 2739 L
3090 2689 mt 3040 2739 L
3033 2528 mt 3083 2578 L
3083 2528 mt 3033 2578 L
3051 2403 mt 3101 2453 L
3101 2403 mt 3051 2453 L
3049 2369 mt 3099 2419 L
3099 2369 mt 3049 2419 L
3115 2229 mt 3165 2279 L
3165 2229 mt 3115 2279 L
2661 2754 mt 2711 2804 L
2711 2754 mt 2661 2804 L
2086 2791 mt 2136 2841 L
2136 2791 mt 2086 2841 L
3101 2697 mt 3151 2747 L
3151 2697 mt 3101 2747 L
2517 2418 mt 2567 2468 L
2567 2418 mt 2517 2468 L
2649 2696 mt 2699 2746 L
2699 2696 mt 2649 2746 L
2895 2277 mt 2945 2327 L
2945 2277 mt 2895 2327 L
2975 2670 mt 3025 2720 L
3025 2670 mt 2975 2720 L
1784 2678 mt 1834 2728 L
1834 2678 mt 1784 2728 L
2907 2250 mt 2957 2300 L
2957 2250 mt 2907 2300 L
2939 2556 mt 2989 2606 L
2989 2556 mt 2939 2606 L
2273 2265 mt 2323 2315 L
2323 2265 mt 2273 2315 L
2777 2376 mt 2827 2426 L
2827 2376 mt 2777 2426 L
2321 2127 mt 2371 2177 L
2371 2127 mt 2321 2177 L
2816 2439 mt 2866 2489 L
2866 2439 mt 2816 2489 L
1982 2333 mt 2032 2383 L
2032 2333 mt 1982 2383 L
3171 2282 mt 3221 2332 L
3221 2282 mt 3171 2332 L
2905 2331 mt 2955 2381 L
2955 2331 mt 2905 2381 L
2003 2659 mt 2053 2709 L
2053 2659 mt 2003 2709 L
2980 2325 mt 3030 2375 L
3030 2325 mt 2980 2375 L
2702 2401 mt 2752 2451 L
2752 2401 mt 2702 2451 L
3087 2179 mt 3137 2229 L
3137 2179 mt 3087 2229 L
2865 2571 mt 2915 2621 L
2915 2571 mt 2865 2621 L
1973 2561 mt 2023 2611 L
2023 2561 mt 1973 2611 L
1992 2786 mt 2042 2836 L
2042 2786 mt 1992 2836 L
2238 2630 mt 2288 2680 L
2288 2630 mt 2238 2680 L
2273 2577 mt 2323 2627 L
2323 2577 mt 2273 2627 L
2514 2313 mt 2564 2363 L
2564 2313 mt 2514 2363 L
2809 2396 mt 2859 2446 L
2859 2396 mt 2809 2446 L
2716 2611 mt 2766 2661 L
2766 2611 mt 2716 2661 L
2898 2606 mt 2948 2656 L
2948 2606 mt 2898 2656 L
2553 2631 mt 2603 2681 L
2603 2631 mt 2553 2681 L
2329 2402 mt 2379 2452 L
2379 2402 mt 2329 2452 L
3091 2644 mt 3141 2694 L
3141 2644 mt 3091 2694 L
2780 2396 mt 2830 2446 L
2830 2396 mt 2780 2446 L
2804 2687 mt 2854 2737 L
2854 2687 mt 2804 2737 L
1966 2747 mt 2016 2797 L
2016 2747 mt 1966 2797 L
2079 2132 mt 2129 2182 L
2129 2132 mt 2079 2182 L
2026 2313 mt 2076 2363 L
2076 2313 mt 2026 2363 L
2564 2618 mt 2614 2668 L
2614 2618 mt 2564 2668 L
2834 2214 mt 2884 2264 L
2884 2214 mt 2834 2264 L
2362 2563 mt 2412 2613 L
2412 2563 mt 2362 2613 L
2297 2599 mt 2347 2649 L
2347 2599 mt 2297 2649 L
2487 2280 mt 2537 2330 L
2537 2280 mt 2487 2330 L
2683 2782 mt 2733 2832 L
2733 2782 mt 2683 2832 L
1787 2219 mt 1837 2269 L
1837 2219 mt 1787 2269 L
2408 2609 mt 2458 2659 L
2458 2609 mt 2408 2659 L
2305 2688 mt 2355 2738 L
2355 2688 mt 2305 2738 L
2726 2673 mt 2776 2723 L
2776 2673 mt 2726 2723 L
2572 2617 mt 2622 2667 L
2622 2617 mt 2572 2667 L
2472 2260 mt 2522 2310 L
2522 2260 mt 2472 2310 L
3008 2560 mt 3058 2610 L
3058 2560 mt 3008 2610 L
2024 2589 mt 2074 2639 L
2074 2589 mt 2024 2639 L
2200 2270 mt 2250 2320 L
2250 2270 mt 2200 2320 L
2970 2281 mt 3020 2331 L
3020 2281 mt 2970 2331 L
2189 2239 mt 2239 2289 L
2239 2239 mt 2189 2289 L
2344 2313 mt 2394 2363 L
2394 2313 mt 2344 2363 L
1784 2441 mt 1834 2491 L
1834 2441 mt 1784 2491 L
2248 2321 mt 2298 2371 L
2298 2321 mt 2248 2371 L
2788 2204 mt 2838 2254 L
2838 2204 mt 2788 2254 L
1862 2795 mt 1912 2845 L
1912 2795 mt 1862 2845 L
2240 2257 mt 2290 2307 L
2290 2257 mt 2240 2307 L
2481 2538 mt 2531 2588 L
2531 2538 mt 2481 2588 L
2566 2541 mt 2616 2591 L
2616 2541 mt 2566 2591 L
2044 2752 mt 2094 2802 L
2094 2752 mt 2044 2802 L
2148 2169 mt 2198 2219 L
2198 2169 mt 2148 2219 L
2319 2747 mt 2369 2797 L
2369 2747 mt 2319 2797 L
1879 2180 mt 1929 2230 L
1929 2180 mt 1879 2230 L
2607 2148 mt 2657 2198 L
2657 2148 mt 2607 2198 L
2957 3882 mt 3007 3932 L
3007 3882 mt 2957 3932 L
4148 1201 mt 4198 1251 L
4198 1201 mt 4148 1251 L
3642 3912 mt 3692 3962 L
3692 3912 mt 3642 3962 L
3009 2887 mt 3059 2937 L
3059 2887 mt 3009 2937 L
2790 2986 mt 2840 3036 L
2840 2986 mt 2790 3036 L
2976  937 mt 3026  987 L
3026  937 mt 2976  987 L
2036 2016 mt 2086 2066 L
2086 2016 mt 2036 2066 L
2892 1078 mt 2942 1128 L
2942 1078 mt 2892 1128 L
2191 1113 mt 2241 1163 L
2241 1113 mt 2191 1163 L
2325 3981 mt 2375 4031 L
2375 3981 mt 2325 4031 L
3120 3592 mt 3170 3642 L
3170 3592 mt 3120 3642 L
3970 2884 mt 4020 2934 L
4020 2884 mt 3970 2934 L
3265  436 mt 3315  486 L
3315  436 mt 3265  486 L
3293 1048 mt 3343 1098 L
3343 1048 mt 3293 1098 L
3812 1325 mt 3862 1375 L
3862 1325 mt 3812 1375 L
4221 4254 mt 4271 4304 L
4271 4254 mt 4221 4304 L
2772  796 mt 2822  846 L
2822  796 mt 2772  846 L
4153  470 mt 4203  520 L
4203  470 mt 4153  520 L
3517 1931 mt 3567 1981 L
3567 1931 mt 3517 1981 L
4137 3918 mt 4187 3968 L
4187 3918 mt 4137 3968 L
3716 3915 mt 3766 3965 L
3766 3915 mt 3716 3965 L
2314 3959 mt 2364 4009 L
2364 3959 mt 2314 4009 L
2620 3164 mt 2670 3214 L
2670 3164 mt 2620 3214 L
4899 1714 mt 4949 1764 L
4949 1714 mt 4899 1764 L
2499 1689 mt 2549 1739 L
2549 1689 mt 2499 1739 L
3360 2539 mt 3410 2589 L
3410 2539 mt 3360 2589 L
gs 848 371 5055 4029 rc
gr

0 sg
 831 4442 mt 
( ) s
5886  413 mt 
( ) s
gs 848 371 5055 4029 rc
-1516 0 3303 2822 2 MP stroke
-1516 0 3303 2150 2 MP stroke
0 672 3303 2150 2 MP stroke
0 672 1787 2150 2 MP stroke
1053 1938 4427 447 2 MP stroke
1053 -1937 4427 4322 2 MP stroke
2105 0 2322 447 2 MP stroke
2105 0 2322 4322 2 MP stroke
1053 -1938 1269 2385 2 MP stroke
1053 1937 1269 2385 2 MP stroke
gr

1 sg
0 207 4053 0 0 -207 1319 4803 4 MP
PP
-4053 0 0 207 4053 0 0 -207 1319 4803 5 MP stroke
4 w
DO
SO
6 w
0 sg
1319 4596 mt 5372 4596 L
1319 4803 mt 5372 4803 L
5372 4803 mt 5372 4596 L
1319 4803 mt 1319 4596 L
1319 4803 mt 5372 4803 L
1319 4803 mt 1319 4596 L
1319 4596 mt 5372 4596 L
1319 4803 mt 5372 4803 L
5372 4803 mt 5372 4596 L
1319 4803 mt 1319 4596 L
1787 4739 mt 
(Observer UE) s
gs 1319 4596 4054 208 rc
gs 1498 4623 147 147 rc
c8
1535 4696 mt 1607 4696 L
1571 4660 mt 1571 4732 L
1546 4671 mt 1596 4721 L
1596 4671 mt 1546 4721 L
gr

c8
gr

c8
0 sg
2936 4739 mt 
(Visible UEs = 46) s
gs 1319 4596 4054 208 rc
gs 2647 4623 147 147 rc
c9
2684 4696 mt 2756 4696 L
2720 4660 mt 2720 4732 L
2695 4671 mt 2745 4721 L
2745 4671 mt 2695 4721 L
gr

c9
gr

c9
0 sg
4293 4739 mt 
(Invisible UEs = 103) s
gs 1319 4596 4054 208 rc
gs 4002 4623 148 147 rc
c10
4039 4696 mt 4112 4696 L
4075 4660 mt 4075 4732 L
4050 4671 mt 4101 4721 L
4101 4671 mt 4050 4721 L
gr

c10
gr

c10

end %%Color Dict

eplot
%%EndObject

epage
end

showpage

%%Trailer
%%EOF
