\relax 
\citation{patent}
\citation{patent}
\@writefile{toc}{\contentsline {section}{\numberline {1}Background}{1}}
\@writefile{toc}{\contentsline {section}{\numberline {2}The Description of Issues}{1}}
\@writefile{lof}{\contentsline {figure}{\numberline {1}{\ignorespaces An illustration of co-channel interference of D2D signal transmission}}{1}}
\newlabel{2sites_3UEs}{{1}{1}}
\@writefile{lof}{\contentsline {figure}{\numberline {2}{\ignorespaces The interference not solely from one UE}}{1}}
\newlabel{goodalloc}{{2}{1}}
\@writefile{toc}{\contentsline {section}{\numberline {3}The Description of Invention}{1}}
\citation{patent}
\@writefile{lof}{\contentsline {figure}{\numberline {3}{\ignorespaces The interference solely from one UE}}{2}}
\newlabel{badalloc}{{3}{2}}
\newlabel{eq1}{{1}{2}}
\newlabel{eq2}{{2}{2}}
\@writefile{lof}{\contentsline {figure}{\numberline {4}{\ignorespaces Time-frequency resource structure}}{2}}
\newlabel{TFRS}{{4}{2}}
\bibcite{patent}{1}
\@writefile{lof}{\contentsline {figure}{\numberline {5}{\ignorespaces The corresponding values of $r$ for the resource allocation in the three macro sites}}{3}}
\newlabel{7sites_3reuse}{{5}{3}}
\@writefile{lof}{\contentsline {figure}{\numberline {6}{\ignorespaces The distribution of DRBs utilization for the three macro sites using the same resource pool}}{3}}
\newlabel{M3N3K3L9DRP_3reuse}{{6}{3}}
